<?xml version="1.0" encoding="UTF-8" ?>
<!DOCTYPE svg PUBLIC "-//W3C//DTD SVG 1.1//EN" "http://www.w3.org/Graphics/SVG/1.1/DTD/svg11.dtd">
<svg width="510pt" height="128pt" viewBox="0 0 510 128" version="1.1" xmlns="http://www.w3.org/2000/svg">
<g id="#c84daaff">
<path fill="#c84daa" opacity="1.00" d=" M 440.50 1.63 C 448.02 -2.37 458.31 1.40 461.35 9.39 C 464.90 17.23 460.16 27.27 451.93 29.64 C 443.36 32.74 433.09 26.17 432.33 17.11 C 431.37 10.88 434.84 4.38 440.50 1.63 Z" />
<path fill="#c84daa" opacity="1.00" d=" M 417.43 6.75 C 424.28 3.72 432.38 10.90 429.91 18.03 C 428.30 24.78 418.71 27.11 414.16 21.91 C 409.54 17.47 411.43 8.91 417.43 6.75 Z" />
<path fill="#c84daa" opacity="1.00" d=" M 468.32 12.36 C 471.56 10.41 473.41 16.34 469.86 16.67 C 467.31 17.47 466.08 13.27 468.32 12.36 Z" />
<path fill="#c84daa" opacity="1.00" d=" M 465.36 19.38 C 468.92 16.84 474.21 19.83 474.38 24.05 C 474.69 28.44 469.27 31.95 465.50 29.40 C 461.70 27.40 461.61 21.47 465.36 19.38 Z" />
<path fill="#c84daa" opacity="1.00" d=" M 412.54 26.65 C 414.24 25.59 417.03 26.08 417.76 28.14 C 419.41 30.73 415.78 34.42 413.17 32.82 C 410.64 31.96 410.32 28.04 412.54 26.65 Z" />
<path fill="#c84daa" opacity="1.00" d=" M 394.43 31.70 C 401.78 28.11 411.40 31.89 414.54 39.38 C 418.02 46.80 414.23 56.51 406.57 59.50 C 399.11 62.86 389.56 58.91 386.64 51.28 C 383.36 44.02 387.19 34.81 394.43 31.70 Z" />
<path fill="#c84daa" opacity="1.00" d=" M 459.07 30.94 C 467.61 29.80 476.14 37.28 475.79 45.97 C 476.25 55.11 466.87 62.94 457.96 60.97 C 450.92 59.80 445.33 53.17 445.51 46.01 C 445.35 38.48 451.58 31.62 459.07 30.94 Z" />
<path fill="#c84daa" opacity="1.00" d=" M 418.33 38.47 C 419.93 37.19 421.61 38.83 422.74 39.90 C 421.85 40.82 421.44 42.73 419.85 42.65 C 417.64 43.07 416.43 39.49 418.33 38.47 Z" />
<path fill="#c84daa" opacity="1.00" d=" M 503.39 42.48 C 506.51 40.69 508.40 46.33 504.96 46.84 C 502.28 47.62 500.98 43.40 503.39 42.48 Z" />
<path fill="#c84daa" opacity="1.00" d=" M 437.27 50.00 C 438.30 49.22 438.96 47.30 440.55 47.63 C 442.92 47.74 443.47 51.51 441.14 52.23 C 439.38 53.06 438.28 51.02 437.27 50.00 Z" />
<path fill="#c84daa" opacity="1.00" d=" M 440.44 54.56 C 443.91 53.43 447.96 56.29 447.88 59.98 C 448.39 64.50 442.50 67.97 438.88 65.09 C 434.71 62.67 435.76 55.68 440.44 54.56 Z" />
<path fill="#c84daa" opacity="1.00" d=" M 384.10 63.10 C 380.86 61.86 381.70 56.57 385.15 56.37 C 387.54 55.92 388.65 58.35 389.63 60.04 C 388.48 61.92 386.62 64.45 384.10 63.10 Z" />
<path fill="#c84daa" opacity="1.00" d=" M 474.53 56.72 C 476.09 55.80 478.37 57.07 477.95 58.99 C 478.12 60.27 476.31 61.92 475.12 61.05 C 473.00 60.80 472.76 57.49 474.53 56.72 Z" />
<path fill="#c84daa" opacity="1.00" d=" M 391.49 61.62 C 394.11 59.74 396.78 64.49 393.80 65.72 C 391.15 67.10 388.91 63.02 391.49 61.62 Z" />
<path fill="#c84daa" opacity="1.00" d=" M 468.19 61.90 C 475.06 60.74 481.07 68.70 477.99 75.01 C 475.49 81.35 465.95 82.55 462.01 76.97 C 457.52 71.64 461.26 62.60 468.19 61.90 Z" />
<path fill="#c84daa" opacity="1.00" d=" M 449.48 65.70 C 453.56 63.44 458.99 67.49 457.84 72.06 C 457.28 76.57 450.84 78.45 447.90 75.01 C 445.13 72.36 446.04 67.32 449.48 65.70 Z" />
<path fill="#c84daa" opacity="1.00" d=" M 435.55 67.72 C 437.90 65.75 441.03 69.65 438.57 71.38 C 436.17 73.39 432.88 69.53 435.55 67.72 Z" />
<path fill="#c84daa" opacity="1.00" d=" M 440.17 73.08 C 444.07 70.57 447.75 77.46 443.50 79.36 C 439.59 81.57 436.06 75.05 440.17 73.08 Z" />
<path fill="#c84daa" opacity="1.00" d=" M 478.57 78.94 C 478.27 76.47 482.25 75.62 483.12 77.95 C 483.97 79.67 482.11 80.81 481.03 81.81 C 480.16 80.92 478.51 80.40 478.57 78.94 Z" />
<path fill="#c84daa" opacity="1.00" d=" M 503.36 79.19 C 503.56 77.26 506.61 76.74 507.52 78.36 C 508.90 79.90 507.04 81.59 506.09 82.72 C 504.91 81.87 502.74 81.07 503.36 79.19 Z" />
<path fill="#c84daa" opacity="1.00" d=" M 487.47 80.71 C 491.17 78.25 496.71 81.58 496.28 86.01 C 496.35 90.30 490.83 93.28 487.31 90.74 C 483.59 88.65 483.71 82.70 487.47 80.71 Z" />
<path fill="#c84daa" opacity="1.00" d=" M 496.46 91.61 C 498.75 90.36 502.00 92.37 501.63 95.02 C 501.70 97.53 498.30 99.34 496.29 97.76 C 493.84 96.52 494.08 92.80 496.46 91.61 Z" />
<path fill="#c84daa" opacity="1.00" d=" M 485.56 96.49 C 485.25 94.88 487.09 94.18 488.01 93.21 C 489.27 94.29 491.56 96.03 489.68 97.67 C 488.54 99.38 485.68 98.36 485.56 96.49 Z" />
<path fill="#c84daa" opacity="1.00" d=" M 442.27 110.16 C 449.26 106.56 457.95 114.63 454.81 121.86 C 452.81 128.65 442.61 130.14 438.60 124.41 C 434.83 119.88 436.83 112.33 442.27 110.16 Z" />
<path fill="#c84daa" opacity="1.00" d=" M 420.24 111.15 C 424.25 110.04 428.39 114.00 427.36 118.05 C 426.55 122.20 420.90 124.26 417.79 121.24 C 414.05 118.49 415.67 111.86 420.24 111.15 Z" />
<path fill="#c84daa" opacity="1.00" d=" M 471.48 116.37 C 474.44 115.13 475.99 120.21 472.87 120.84 C 469.99 121.83 468.53 117.08 471.48 116.37 Z" />
<path fill="#c84daa" opacity="1.00" d=" M 456.44 124.56 C 456.19 122.91 458.08 122.27 458.99 121.28 C 459.83 122.34 462.12 123.41 461.09 125.09 C 460.41 127.44 456.63 126.94 456.44 124.56 Z" />
</g>
<g id="#8e44edff">
<path fill="#8e44ed" opacity="1.00" d=" M 464.36 4.52 C 466.90 1.67 471.95 5.77 469.77 8.82 C 468.87 10.88 465.76 11.40 464.26 9.73 C 462.70 8.49 462.78 5.72 464.36 4.52 Z" />
<path fill="#8e44ed" opacity="1.00" d=" M 475.26 9.15 C 477.29 7.43 480.78 9.38 480.64 11.97 C 481.04 15.08 476.49 17.09 474.56 14.52 C 472.92 13.05 473.36 10.18 475.26 9.15 Z" />
<path fill="#8e44ed" opacity="1.00" d=" M 477.32 21.96 C 477.21 18.52 480.69 15.59 484.08 16.28 C 487.08 16.53 488.54 19.50 489.46 21.99 C 488.57 24.56 487.11 27.65 483.98 27.79 C 480.57 28.44 477.11 25.42 477.32 21.96 Z" />
<path fill="#8e44ed" opacity="1.00" d=" M 402.35 17.52 C 406.10 15.24 411.43 18.61 410.92 22.98 C 411.01 27.17 405.80 30.02 402.28 27.81 C 398.22 25.87 398.34 19.44 402.35 17.52 Z" />
<path fill="#8e44ed" opacity="1.00" d=" M 423.47 26.74 C 427.38 24.84 432.35 28.48 431.60 32.80 C 431.37 37.16 425.58 39.53 422.25 36.78 C 418.77 34.36 419.48 28.27 423.47 26.74 Z" />
<path fill="#8e44ed" opacity="1.00" d=" M 476.12 28.07 C 479.90 25.76 483.54 32.30 479.49 34.34 C 475.47 36.71 471.91 29.99 476.12 28.07 Z" />
<path fill="#8e44ed" opacity="1.00" d=" M 490.21 27.93 C 495.08 26.06 501.05 28.99 502.40 34.05 C 504.13 39.18 500.36 45.25 494.99 45.91 C 489.69 47.05 484.01 42.51 484.17 37.05 C 483.84 33.08 486.53 29.27 490.21 27.93 Z" />
<path fill="#8e44ed" opacity="1.00" d=" M 436.26 34.25 C 440.62 32.12 445.95 37.41 443.81 41.79 C 442.51 45.68 437.01 46.90 434.21 43.89 C 431.13 41.10 432.36 35.56 436.26 34.25 Z" />
<path fill="#8e44ed" opacity="1.00" d=" M 477.06 39.87 C 476.66 38.31 478.06 37.34 478.92 36.32 C 480.12 37.12 482.42 38.02 481.58 39.87 C 481.32 42.10 477.41 42.08 477.06 39.87 Z" />
<path fill="#8e44ed" opacity="1.00" d=" M 423.35 43.53 C 429.42 41.21 436.58 46.57 435.79 53.06 C 435.64 60.34 425.86 64.54 420.50 59.54 C 414.95 55.33 416.70 45.58 423.35 43.53 Z" />
<path fill="#8e44ed" opacity="1.00" d=" M 479.35 44.28 C 481.38 42.25 485.29 44.20 484.98 47.02 C 485.25 49.86 481.37 51.77 479.34 49.74 C 477.63 48.51 477.58 45.47 479.35 44.28 Z" />
<path fill="#8e44ed" opacity="1.00" d=" M 490.44 48.61 C 499.66 45.54 510.47 53.15 509.93 63.01 C 510.57 72.22 501.00 80.06 492.09 78.02 C 485.36 76.90 480.07 70.76 479.71 64.00 C 479.21 57.21 483.94 50.53 490.44 48.61 Z" />
<path fill="#8e44ed" opacity="1.00" d=" M 406.62 61.92 C 418.37 58.70 431.69 65.64 435.66 77.17 C 438.97 85.71 436.78 95.96 430.43 102.54 C 424.44 108.86 414.88 111.74 406.45 109.30 C 395.79 106.64 387.65 96.06 388.30 85.01 C 388.24 74.32 396.33 64.46 406.62 61.92 Z" />
<path fill="#8e44ed" opacity="1.00" d=" M 385.36 66.60 C 387.74 64.99 391.35 67.12 390.77 70.04 C 390.60 73.12 386.07 74.04 384.43 71.64 C 382.95 70.11 383.70 67.63 385.36 66.60 Z" />
<path fill="#8e44ed" opacity="1.00" d=" M 449.46 78.74 C 457.62 75.96 467.25 81.54 468.82 90.02 C 470.74 97.76 465.32 106.25 457.57 107.96 C 449.99 110.03 441.49 105.03 439.43 97.49 C 436.88 89.88 441.82 80.96 449.46 78.74 Z" />
<path fill="#8e44ed" opacity="1.00" d=" M 473.52 83.72 C 476.98 81.08 482.41 83.80 482.69 88.03 C 483.30 92.35 478.07 96.12 474.23 93.82 C 470.28 92.17 469.96 85.94 473.52 83.72 Z" />
<path fill="#8e44ed" opacity="1.00" d=" M 500.12 89.62 C 497.91 89.19 497.66 85.39 500.09 85.13 C 501.63 84.57 502.65 86.19 503.72 86.94 C 502.80 88.07 501.98 90.19 500.12 89.62 Z" />
<path fill="#8e44ed" opacity="1.00" d=" M 473.36 97.43 C 479.28 93.98 487.57 99.23 486.90 106.05 C 487.17 113.10 478.02 117.84 472.42 113.52 C 466.58 109.97 467.12 100.25 473.36 97.43 Z" />
<path fill="#8e44ed" opacity="1.00" d=" M 491.39 99.48 C 493.62 98.69 496.32 100.58 495.93 103.04 C 496.02 105.38 493.07 107.24 491.05 106.03 C 488.19 105.02 488.39 100.15 491.39 99.48 Z" />
<path fill="#8e44ed" opacity="1.00" d=" M 429.44 106.59 C 433.26 104.54 436.64 110.86 432.71 112.82 C 428.72 115.67 424.92 108.36 429.44 106.59 Z" />
<path fill="#8e44ed" opacity="1.00" d=" M 459.62 109.67 C 463.06 107.18 468.44 109.78 468.68 113.98 C 469.40 118.39 464.03 122.06 460.19 119.80 C 456.28 118.04 455.98 111.87 459.62 109.67 Z" />
<path fill="#8e44ed" opacity="1.00" d=" M 429.91 117.00 C 430.57 114.98 433.48 114.91 434.30 116.85 C 435.20 118.68 433.17 119.83 431.95 120.74 C 431.08 119.68 428.78 118.59 429.91 117.00 Z" />
</g>
<g id="#311b92ff">
<path fill="#311b92" opacity="1.00" d=" M 251.26 7.83 C 252.66 7.02 254.06 6.23 255.47 5.44 C 258.47 12.54 257.06 20.44 257.66 27.91 C 257.82 29.06 258.90 29.78 259.51 30.71 C 259.48 31.79 259.43 33.94 259.40 35.01 C 255.86 35.00 252.71 32.43 252.61 28.78 C 252.30 21.79 252.94 14.70 251.26 7.83 Z" />
<path fill="#311b92" opacity="1.00" d=" M 294.89 7.88 C 296.34 7.05 297.79 6.24 299.27 5.45 C 301.91 12.33 301.03 19.85 301.27 27.06 C 301.06 28.43 302.13 29.33 302.91 30.27 C 303.02 31.83 303.12 33.39 303.21 34.95 C 300.10 34.90 296.92 33.10 296.45 29.80 C 295.88 22.51 296.83 15.04 294.89 7.88 Z" />
<path fill="#311b92" opacity="1.00" d=" M 191.43 15.50 C 188.24 14.74 189.10 9.55 192.12 9.27 C 193.49 9.01 194.53 10.21 195.68 10.73 C 196.96 10.06 198.24 8.81 199.81 9.41 C 202.39 10.02 202.82 14.10 200.55 15.38 C 198.84 16.54 197.08 15.03 195.56 14.31 C 194.37 15.17 192.96 16.34 191.43 15.50 Z" />
<path fill="#311b92" opacity="1.00" d=" M 242.57 9.62 C 244.72 8.36 247.96 10.45 247.25 13.01 C 247.31 15.70 242.92 16.86 241.52 14.59 C 240.44 13.07 240.80 10.46 242.57 9.62 Z" />
<path fill="#311b92" opacity="1.00" d=" M 148.53 12.65 C 150.36 11.48 153.82 12.52 153.75 15.08 C 154.11 17.89 150.31 19.66 148.28 17.79 C 146.61 16.57 147.05 13.83 148.53 12.65 Z" />
<path fill="#311b92" opacity="1.00" d=" M 90.51 18.79 C 94.49 18.99 98.74 18.04 102.53 19.49 C 106.15 21.89 105.45 27.05 102.10 29.36 C 104.16 29.55 106.21 29.73 108.26 29.92 C 108.25 31.54 108.24 33.17 108.22 34.80 C 103.98 35.14 99.87 34.04 96.05 32.29 C 92.73 34.01 88.57 35.92 87.77 40.00 C 87.00 44.37 91.13 47.80 95.07 48.45 C 99.27 49.04 103.54 48.64 107.76 48.80 C 107.75 50.45 107.75 52.10 107.74 53.74 C 100.97 53.33 93.10 55.37 87.44 50.55 C 83.08 47.37 81.52 41.30 83.51 36.33 C 84.99 32.92 88.27 30.85 91.29 28.93 C 90.29 25.64 90.44 22.19 90.51 18.79 M 94.98 24.20 C 95.50 24.98 96.01 25.75 96.53 26.53 C 97.71 25.69 98.89 24.86 100.05 24.01 C 98.36 24.04 96.67 24.11 94.98 24.20 Z" />
<path fill="#311b92" opacity="1.00" d=" M 131.13 22.15 C 132.65 21.35 134.17 20.53 135.68 19.72 C 137.48 23.47 139.69 28.23 136.96 32.09 C 134.10 35.84 128.80 34.51 124.74 34.75 C 124.73 33.10 124.73 31.45 124.73 29.80 C 127.59 29.80 130.46 29.73 133.28 29.26 C 133.02 26.77 132.23 24.39 131.13 22.15 Z" />
<path fill="#311b92" opacity="1.00" d=" M 157.91 31.07 C 154.75 25.71 161.36 17.95 167.08 20.92 C 170.18 23.27 170.80 27.48 173.12 30.46 C 172.76 35.43 171.88 41.42 167.23 44.24 C 164.12 46.47 160.30 47.22 156.57 47.65 C 156.53 45.97 156.49 44.30 156.46 42.63 C 160.69 41.22 166.69 40.28 167.60 35.00 C 164.18 34.50 159.96 34.34 157.91 31.07 M 161.96 28.65 C 163.53 29.00 165.11 29.34 166.70 29.63 C 166.01 28.22 165.39 26.76 164.53 25.43 C 162.79 25.25 162.77 27.58 161.96 28.65 Z" />
<path fill="#311b92" opacity="1.00" d=" M 195.29 22.01 C 196.79 21.28 198.28 20.52 199.79 19.78 C 201.52 23.50 203.76 28.25 201.01 32.06 C 198.43 35.63 193.52 34.59 189.73 34.75 C 189.73 33.12 189.75 31.48 189.77 29.85 C 192.33 29.77 194.89 29.65 197.42 29.23 C 197.05 26.73 196.21 24.35 195.29 22.01 Z" />
<path fill="#311b92" opacity="1.00" d=" M 242.91 22.08 C 244.47 21.33 246.02 20.57 247.58 19.82 C 249.24 23.37 251.18 27.59 249.29 31.44 C 247.10 35.11 242.35 34.89 238.64 34.73 C 238.61 33.13 238.58 31.54 238.57 29.94 C 240.68 29.69 242.99 30.00 244.91 28.88 C 245.24 26.44 243.74 24.27 242.91 22.08 Z" />
<path fill="#311b92" opacity="1.00" d=" M 282.41 22.42 C 284.35 20.44 287.53 19.60 290.07 20.89 C 294.49 23.72 294.85 30.64 291.33 34.30 C 288.33 36.56 284.83 34.20 281.95 32.96 C 280.02 34.02 277.92 34.68 275.73 34.90 C 275.73 33.32 275.75 31.73 275.78 30.15 C 279.48 29.10 279.69 24.61 282.41 22.42 M 284.18 28.13 C 285.53 28.87 286.90 29.61 288.27 30.33 C 288.29 28.86 288.99 27.21 288.07 25.87 C 286.46 24.32 285.42 27.48 284.18 28.13 Z" />
<path fill="#311b92" opacity="1.00" d=" M 346.32 22.24 C 347.80 21.38 349.28 20.52 350.76 19.66 C 352.31 22.84 354.30 26.36 353.19 30.01 C 352.55 33.18 349.06 34.84 346.06 34.73 C 342.40 34.59 338.74 33.81 335.10 34.57 C 332.65 35.14 330.29 34.34 328.11 33.31 C 325.39 34.35 322.53 34.86 319.62 34.84 C 319.62 33.14 319.64 31.44 319.67 29.73 C 321.59 29.51 323.51 29.32 325.44 29.11 C 324.90 27.48 324.35 25.87 323.79 24.26 C 325.25 23.43 326.71 22.60 328.17 21.77 C 329.21 24.11 329.96 26.58 331.22 28.82 C 332.82 30.59 335.33 29.16 337.30 29.01 C 336.76 27.39 336.22 25.78 335.70 24.16 C 337.18 23.36 338.67 22.58 340.18 21.81 C 341.34 24.25 342.04 26.86 342.47 29.52 C 344.43 29.49 346.39 29.45 348.36 29.37 C 348.53 26.80 347.45 24.47 346.32 22.24 Z" />
<path fill="#311b92" opacity="1.00" d=" M 206.54 31.50 C 202.76 26.21 209.80 17.53 215.62 21.20 C 219.41 23.25 218.54 29.51 223.21 30.25 C 223.21 31.79 223.20 33.32 223.19 34.85 C 219.78 35.20 216.85 33.52 215.07 30.68 C 215.14 32.09 215.19 33.51 215.24 34.92 C 212.11 34.75 208.34 34.52 206.54 31.50 M 212.22 24.79 C 211.65 26.20 211.07 27.61 210.47 29.00 C 212.06 29.33 213.67 29.63 215.28 29.87 C 214.40 28.10 213.37 26.40 212.22 24.79 Z" />
<path fill="#311b92" opacity="1.00" d=" M 149.30 27.65 C 150.61 26.73 152.02 25.97 153.41 25.17 C 155.88 30.20 156.67 36.67 153.61 41.62 C 149.46 45.68 143.45 47.20 137.80 47.61 C 137.77 45.95 137.75 44.29 137.73 42.63 C 142.02 41.86 146.70 40.96 149.96 37.84 C 151.32 34.49 149.92 30.99 149.30 27.65 Z" />
<path fill="#311b92" opacity="1.00" d=" M 108.75 29.78 C 113.91 29.73 119.07 29.73 124.24 29.80 C 124.23 31.43 124.22 33.06 124.21 34.69 C 119.07 34.78 113.94 34.75 108.80 34.73 C 108.78 33.08 108.76 31.43 108.75 29.78 Z" />
<path fill="#311b92" opacity="1.00" d=" M 173.57 29.76 C 178.81 29.75 184.05 29.74 189.29 29.77 C 189.25 31.42 189.20 33.08 189.16 34.73 C 183.95 34.76 178.75 34.77 173.55 34.70 C 173.55 33.05 173.56 31.41 173.57 29.76 Z" />
<path fill="#311b92" opacity="1.00" d=" M 223.72 29.76 C 228.59 29.75 233.45 29.75 238.32 29.76 C 238.33 31.42 238.34 33.08 238.36 34.74 C 233.48 34.76 228.61 34.76 223.73 34.73 C 223.72 33.07 223.72 31.41 223.72 29.76 Z" />
<path fill="#311b92" opacity="1.00" d=" M 260.26 29.78 C 265.26 29.73 270.25 29.75 275.25 29.76 C 275.24 31.42 275.22 33.08 275.20 34.73 C 270.22 34.76 265.25 34.76 260.27 34.72 C 260.26 33.07 260.26 31.43 260.26 29.78 Z" />
<path fill="#311b92" opacity="1.00" d=" M 303.72 29.80 C 308.96 29.73 314.19 29.70 319.42 29.82 C 319.38 31.45 319.34 33.09 319.29 34.72 C 314.18 34.76 309.07 34.78 303.96 34.70 C 303.87 33.06 303.79 31.43 303.72 29.80 Z" />
<path fill="#311b92" opacity="1.00" d=" M 126.27 42.90 C 123.86 41.62 124.68 37.87 127.02 37.01 C 128.60 36.67 129.95 37.79 131.33 38.35 C 132.61 37.57 134.16 36.35 135.70 37.35 C 138.27 38.26 137.94 41.92 135.90 43.20 C 134.26 44.05 132.68 42.76 131.18 42.23 C 129.60 42.70 127.88 44.04 126.27 42.90 Z" />
<path fill="#311b92" opacity="1.00" d=" M 71.30 59.70 C 73.94 59.79 76.55 59.49 79.14 59.05 C 77.58 61.02 75.13 61.49 72.75 61.67 C 72.24 62.08 71.21 62.90 70.70 63.31 C 70.90 62.10 71.10 60.90 71.30 59.70 Z" />
<path fill="#311b92" opacity="1.00" d=" M 2.22 60.29 C 2.80 60.24 3.94 60.15 4.52 60.11 C 3.31 62.93 1.91 65.79 1.95 68.94 C 1.76 72.55 3.41 75.87 4.39 79.26 C 2.15 78.07 0.75 75.98 0.00 73.62 L 0.00 65.30 C 0.66 63.60 1.44 61.94 2.22 60.29 Z" />
<path fill="#311b92" opacity="1.00" d=" M 47.18 60.51 C 47.60 60.33 48.44 59.97 48.86 59.79 C 49.08 64.01 49.00 68.23 48.98 72.45 C 50.47 72.35 52.44 73.30 53.62 72.00 C 55.37 70.74 56.54 68.39 58.86 68.15 C 61.69 69.35 62.03 72.71 61.15 75.30 C 59.20 75.22 57.28 74.88 55.46 74.15 C 52.83 74.45 48.56 76.09 47.14 72.97 C 46.86 68.83 46.85 64.65 47.18 60.51 M 56.89 72.13 C 57.30 74.05 60.52 73.46 59.83 71.45 C 59.48 69.54 56.40 70.29 56.89 72.13 Z" />
<path fill="#311b92" opacity="1.00" d=" M 25.96 61.95 C 27.26 60.36 31.36 61.14 28.33 63.19 C 29.40 63.80 30.48 64.39 31.55 65.01 C 29.60 66.78 26.43 66.77 24.46 65.03 C 25.58 64.37 26.72 63.72 27.85 63.06 L 25.96 61.95 Z" />
<path fill="#311b92" opacity="1.00" d=" M 79.44 59.82 C 83.33 60.80 83.98 65.66 84.30 69.05 C 84.11 72.69 83.48 77.82 79.36 79.02 C 80.34 76.06 81.80 73.17 81.94 70.00 C 82.15 66.42 80.53 63.13 79.44 59.82 Z" />
<path fill="#311b92" opacity="1.00" d=" M 64.67 62.91 C 65.44 63.00 66.97 63.16 67.74 63.24 C 67.64 63.82 67.43 64.96 67.33 65.54 C 65.75 65.40 64.66 64.66 64.67 62.91 Z" />
<path fill="#311b92" opacity="1.00" d=" M 73.51 63.75 C 74.00 63.75 74.99 63.74 75.49 63.74 C 75.50 67.41 75.50 71.08 75.49 74.76 C 75.00 74.75 74.00 74.75 73.50 74.74 C 73.50 71.08 73.50 67.41 73.51 63.75 Z" />
<path fill="#311b92" opacity="1.00" d=" M 14.98 72.84 C 14.16 69.40 18.09 67.63 20.93 67.97 C 23.81 67.64 24.45 71.14 26.08 72.79 C 27.80 72.65 28.10 70.51 29.14 69.45 C 30.07 70.50 30.74 71.72 31.14 73.12 C 32.45 72.05 33.33 70.60 34.17 69.17 C 34.54 70.51 35.33 71.67 36.31 72.64 C 38.02 72.95 39.73 72.44 41.42 72.23 C 41.12 70.44 40.82 68.65 40.52 66.86 C 44.68 67.15 44.37 74.95 39.92 74.69 C 34.98 74.61 30.03 74.51 25.09 74.58 C 23.24 73.60 22.78 71.04 20.96 69.94 C 19.33 69.93 17.92 70.79 16.52 71.48 C 18.22 72.52 21.18 72.51 21.41 75.02 C 20.95 77.89 17.49 78.31 15.16 78.84 C 12.48 79.05 8.80 79.78 7.13 77.03 C 6.82 74.71 6.86 70.46 10.09 70.40 C 9.64 72.35 9.14 74.29 8.67 76.23 C 12.22 77.45 16.23 77.15 19.50 75.29 C 18.04 74.43 16.10 74.20 14.98 72.84 Z" />
<path fill="#311b92" opacity="1.00" d=" M 66.80 68.51 C 69.62 67.73 69.61 71.09 70.02 72.93 C 69.74 77.23 65.05 78.89 61.74 80.50 C 61.54 79.97 61.14 78.92 60.94 78.40 C 63.32 77.16 66.19 76.29 67.75 73.94 C 67.92 72.09 67.14 70.31 66.80 68.51 Z" />
<path fill="#311b92" opacity="1.00" d=" M 37.63 77.54 C 39.40 76.63 41.63 77.29 43.55 77.07 C 43.45 79.07 42.43 79.67 40.48 78.85 C 39.35 79.75 37.21 79.18 37.63 77.54 Z" />
<path fill="#311b92" opacity="1.00" d=" M 86.51 79.80 C 88.01 79.00 89.53 78.23 91.05 77.47 C 93.43 85.03 92.42 93.04 93.10 100.81 C 93.57 101.21 94.51 102.01 94.99 102.41 C 95.11 103.89 95.22 105.38 95.32 106.87 C 92.04 107.10 88.54 105.46 88.05 101.92 C 87.26 94.57 88.42 87.04 86.51 79.80 Z" />
<path fill="#311b92" opacity="1.00" d=" M 153.89 79.89 C 155.34 79.05 156.80 78.24 158.28 77.45 C 160.90 84.33 160.04 91.84 160.27 99.04 C 160.06 100.45 161.18 101.36 161.98 102.33 C 162.09 103.88 162.19 105.42 162.27 106.97 C 159.17 106.90 155.96 105.16 155.46 101.86 C 154.87 94.55 155.84 87.06 153.89 79.89 Z" />
<path fill="#311b92" opacity="1.00" d=" M 267.29 79.88 C 268.67 79.04 270.06 78.22 271.46 77.41 C 274.45 84.54 273.20 92.49 273.73 100.01 C 275.45 101.97 276.03 104.38 275.81 106.97 C 272.43 107.10 269.12 105.06 268.72 101.53 C 268.11 94.33 269.13 86.97 267.29 79.88 Z" />
<path fill="#311b92" opacity="1.00" d=" M 146.38 81.38 C 148.44 80.73 151.20 82.62 150.54 84.95 C 150.73 87.05 148.12 88.12 146.38 87.70 C 143.50 86.92 143.55 82.19 146.38 81.38 Z" />
<path fill="#311b92" opacity="1.00" d=" M 146.42 94.00 C 147.85 93.25 149.30 92.52 150.77 91.81 C 152.69 95.48 154.65 100.18 152.19 104.08 C 149.95 106.98 145.92 106.77 142.64 106.83 C 142.70 105.19 142.76 103.56 142.83 101.92 C 144.71 101.71 146.59 101.48 148.47 101.21 C 148.06 98.73 147.30 96.34 146.42 94.00 Z" />
<path fill="#311b92" opacity="1.00" d=" M 221.00 94.19 C 222.43 93.35 223.88 92.51 225.32 91.68 C 227.19 94.76 228.70 98.32 227.87 101.99 C 227.23 105.06 223.97 106.67 221.08 106.74 C 217.41 106.73 213.76 105.70 210.11 106.52 C 207.48 107.19 204.93 106.33 202.55 105.27 C 199.93 106.37 197.13 106.85 194.30 106.86 C 194.27 105.14 194.26 103.41 194.25 101.69 C 196.20 101.49 198.15 101.30 200.10 101.09 C 199.55 99.46 198.98 97.85 198.39 96.24 C 199.89 95.43 201.38 94.60 202.88 93.79 C 203.99 96.23 204.61 98.95 206.20 101.14 C 207.88 102.43 210.11 101.10 211.97 100.98 C 211.43 99.43 210.86 97.90 210.28 96.37 C 211.81 95.51 213.35 94.65 214.87 93.77 C 215.93 96.24 216.67 98.84 217.05 101.51 C 219.09 101.47 221.14 101.41 223.19 101.31 C 223.00 98.79 222.09 96.44 221.00 94.19 Z" />
<path fill="#311b92" opacity="1.00" d=" M 249.80 98.98 C 254.16 98.17 255.26 92.00 260.12 92.26 C 264.98 92.12 267.30 97.81 266.46 101.94 C 266.35 105.42 262.40 108.40 259.10 106.80 C 256.30 105.70 253.67 104.18 250.79 103.28 C 250.86 107.96 251.46 112.61 251.57 117.29 C 250.02 117.30 248.48 117.26 246.95 117.17 C 245.92 113.23 245.93 109.08 245.74 105.03 C 245.47 102.35 247.05 99.54 249.80 98.98 M 257.07 100.17 C 258.46 100.88 259.86 101.57 261.28 102.26 C 261.48 100.42 261.29 98.58 260.65 96.84 C 259.45 97.94 258.26 99.06 257.07 100.17 Z" />
<path fill="#311b92" opacity="1.00" d=" M 314.31 94.15 C 315.77 93.31 317.24 92.47 318.71 91.65 C 320.24 94.46 321.30 97.49 321.71 100.67 C 322.05 101.07 322.73 101.86 323.06 102.26 C 323.13 103.82 323.20 105.39 323.27 106.95 C 321.75 106.55 320.23 106.17 318.71 105.81 C 315.22 107.01 311.50 106.79 307.87 106.75 C 307.81 105.11 307.75 103.46 307.71 101.82 C 310.65 101.78 313.61 101.73 316.53 101.30 C 316.16 98.81 315.40 96.41 314.31 94.15 Z" />
<path fill="#311b92" opacity="1.00" d=" M 345.98 94.10 C 347.51 93.34 349.03 92.55 350.55 91.76 C 352.27 95.44 354.46 100.10 351.89 103.91 C 349.06 107.95 343.46 106.48 339.28 106.73 C 339.26 105.10 339.25 103.46 339.25 101.83 C 342.27 101.81 345.32 101.78 348.29 101.13 C 347.81 98.70 346.99 96.36 345.98 94.10 Z" />
<path fill="#311b92" opacity="1.00" d=" M 237.80 99.69 C 239.27 98.85 240.74 98.03 242.23 97.21 C 244.43 102.23 245.47 108.54 242.38 113.42 C 238.37 117.72 232.23 119.17 226.56 119.61 C 226.53 117.95 226.50 116.29 226.48 114.64 C 230.58 113.86 234.89 112.95 238.26 110.34 C 240.28 107.06 238.82 103.06 237.80 99.69 Z" />
<path fill="#311b92" opacity="1.00" d=" M 95.52 101.78 C 100.60 101.74 105.67 101.73 110.75 101.79 C 110.74 103.43 110.73 105.08 110.72 106.72 C 105.75 106.76 100.79 106.76 95.83 106.73 C 95.72 105.08 95.62 103.43 95.52 101.78 Z" />
<path fill="#311b92" opacity="1.00" d=" M 111.24 101.75 C 116.23 101.75 121.22 101.73 126.21 101.78 C 126.24 103.43 126.26 105.08 126.28 106.73 C 121.28 106.76 116.28 106.76 111.28 106.72 C 111.27 105.06 111.25 103.41 111.24 101.75 Z" />
<path fill="#311b92" opacity="1.00" d=" M 126.70 101.79 C 131.92 101.73 137.13 101.72 142.34 101.81 C 142.26 103.45 142.18 105.08 142.08 106.72 C 137.01 106.77 131.94 106.74 126.87 106.75 C 126.80 105.09 126.74 103.44 126.70 101.79 Z" />
<path fill="#311b92" opacity="1.00" d=" M 162.74 101.79 C 167.93 101.72 173.13 101.74 178.32 101.77 C 178.26 103.42 178.20 105.07 178.12 106.71 C 173.11 106.77 168.10 106.75 163.09 106.75 C 162.96 105.10 162.84 103.45 162.74 101.79 Z" />
<path fill="#311b92" opacity="1.00" d=" M 178.82 101.76 C 183.79 101.74 188.76 101.73 193.74 101.78 C 193.73 103.42 193.73 105.07 193.73 106.72 C 188.71 106.76 183.69 106.75 178.67 106.74 C 178.71 105.08 178.76 103.42 178.82 101.76 Z" />
<path fill="#311b92" opacity="1.00" d=" M 276.25 101.78 C 281.26 101.73 286.26 101.74 291.27 101.76 C 291.27 103.42 291.27 105.08 291.27 106.74 C 286.27 106.75 281.28 106.76 276.28 106.73 C 276.26 105.08 276.25 103.43 276.25 101.78 Z" />
<path fill="#311b92" opacity="1.00" d=" M 291.78 101.81 C 296.92 101.71 302.06 101.75 307.21 101.76 C 307.25 103.41 307.29 105.05 307.34 106.69 C 302.15 106.78 296.97 106.78 291.79 106.69 C 291.78 105.06 291.78 103.43 291.78 101.81 Z" />
<path fill="#311b92" opacity="1.00" d=" M 323.52 101.78 C 328.59 101.73 333.67 101.73 338.75 101.78 C 338.74 103.43 338.73 105.08 338.72 106.72 C 333.77 106.76 328.81 106.76 323.86 106.73 C 323.74 105.08 323.62 103.43 323.52 101.78 Z" />
<path fill="#311b92" opacity="1.00" d=" M 309.41 109.40 C 311.02 108.36 312.73 109.93 314.22 110.49 C 316.27 107.87 321.36 109.43 320.21 113.05 C 319.85 116.36 316.03 115.75 314.05 114.30 C 312.70 114.62 311.39 116.03 309.97 115.32 C 307.07 114.87 307.04 110.53 309.41 109.40 Z" />
<path fill="#311b92" opacity="1.00" d=" M 339.71 113.96 C 340.13 112.20 339.89 109.71 342.02 109.02 C 343.82 108.56 345.21 109.94 346.63 110.79 C 346.95 110.27 347.58 109.23 347.90 108.70 C 349.70 109.25 352.89 109.33 352.53 112.04 C 352.94 115.86 347.77 116.23 345.88 113.69 C 343.95 115.37 341.78 115.53 339.71 113.96 Z" />
<path fill="#311b92" opacity="1.00" d=" M 345.23 115.18 C 349.47 113.58 350.98 120.54 346.86 121.52 C 342.93 122.28 341.53 116.45 345.23 115.18 Z" />
</g>
</svg>
